1;9.69999746303074e-07
2;7.400012691505253e-07
3;9.489995136391371e-07
4;9.929990483215079e-07
5;7.939997885841876e-07
6;7.279995770659298e-07
7;7.350008672801778e-07
8;7.560010999441147e-07
9;7.609996828250587e-07
10;7.2900002123788e-07
11;7.319995347643271e-07
12;7.439994078595191e-07
13;7.799990271450952e-07
14;1.002999852062203e-06
15;1.0570001904852688e-06
16;8.719998731976375e-07
17;7.870003173593432e-07
18;1.0040002962341532e-06
19;8.469996828353032e-07
20;8.690003596711904e-07
21;8.949991752160713e-07
22;8.329989213962108e-07
23;8.249990059994161e-07
24;9.490013326285407e-07
25;9.309987945016474e-07
26;8.589995559304953e-07
27;8.620008884463459e-07
28;9.850009519141167e-07
29;1.0200001270277426e-06
30;1.0280000424245372e-06
31;1.0280000424245372e-06
32;9.160012268694118e-07
33;1.0090006981045008e-06
34;9.619998309062794e-07
35;1.0679996194085106e-06
36;1.0250005288980901e-06
37;1.1049996828660369e-06
38;1.062999217538163e-06
39;1.0200001270277426e-06
40;1.3509998098015785e-06
41;1.5069999790284783e-06
42;1.6190006135730073e-06
43;1.332000465481542e-06
44;1.1789998097810894e-06
45;1.5690002328483388e-06
46;1.4400011423276737e-06
47;2.3539996618637815e-06
48;1.3109984138282016e-06
49;1.2149994290666655e-06
50;1.2700002116616815e-06
51;1.1859992810059339e-06
52;1.2880009307991713e-06
53;1.1659994925139472e-06
54;1.2159998732386157e-06
55;1.252999936696142e-06
56;1.3889984984416515e-06
57;2.9080001695547253e-06
58;1.6049998521339148e-06
59;3.683999239001423e-06
60;3.549001121427864e-06
61;3.4959994081873447e-06
62;1.5320001693908125e-06
63;1.3720000424655154e-06
64;1.583999619469978e-06
65;1.3520002539735287e-06
66;1.3970002328278497e-06
67;1.3940007193014026e-06
68;1.3500011846190318e-06
69;1.429998519597575e-06
70;1.5659989003324881e-06
71;3.486000423436053e-06
72;1.6969988791970536e-06
73;1.4139986888039857e-06
74;1.5090008673723787e-06
75;1.426999006071128e-06
76;1.3810004020342603e-06
77;1.5880013961577788e-06
78;1.6850008250912651e-06
79;1.5789992175996304e-06
80;2.1550004021264613e-06
81;1.946000338648446e-06
82;2.1579999156529084e-06
83;2.278000465594232e-06
84;2.3359989427262917e-06
85;1.6689991753082722e-06
86;1.913000232889317e-06
87;1.7450001905672252e-06
88;5.787998816231266e-06
89;4.963001629221253e-06
90;2.0410006982274354e-06
91;1.9799990695901215e-06
92;2.0349998521851376e-06
93;6.355001460178755e-06
94;4.384999556350522e-06
95;2.3659995349589735e-06
96;1.9379986042622477e-06
97;2.209000740549527e-06
98;4.008001269539818e-06
99;4.113000613870099e-06
100;2.142000084859319e-06
101;2.1430005290312693e-06
102;2.7629994292510673e-06
103;2.322000000276603e-06
104;5.204999979468994e-06
105;4.719000571640208e-06
106;4.285000613890588e-06
107;3.834999006357975e-06
108;4.383000486996025e-06
109;2.085000232909806e-06
110;2.576000042608939e-06
111;2.2820004232926294e-06
112;2.0729985408252105e-06
113;2.099999619531445e-06
114;2.3310003598453477e-06
115;4.370000169728883e-06
116;2.4990004021674395e-06
117;6.267999197007157e-06
118;2.5099998310906813e-06
119;3.044999175472185e-06
120;5.095000233268365e-06
121;2.4359997041756287e-06
122;2.607999704196118e-06
123;5.6129993026843295e-06
124;2.585000402177684e-06
125;4.990999514120631e-06
126;2.607999704196118e-06
127;5.859001248609275e-06
128;2.496999513823539e-06
129;3.178000042680651e-06
130;6.414000381482765e-06
131;4.8910005716606975e-06
132;2.3480006348108873e-06
133;5.633999535348266e-06
134;4.974001058144495e-06
135;2.5139997887890786e-06
136;2.1399991965154186e-06
137;2.91700052912347e-06
138;3.970999387092888e-06
139;7.741999070276506e-06
140;5.9750000218627974e-06
141;1.404899921908509e-05
142;3.842000296572223e-06
143;3.9480000850744545e-06
144;4.948999048792757e-06
145;4.78999936603941e-06
146;5.717000021832064e-06
147;4.457000613911077e-06
148;4.5889992179581895e-06
149;2.63900074060075e-06
150;2.91700052912347e-06
151;2.5839999580057338e-06
152;3.5009998100576922e-06
153;2.901000698329881e-06
154;6.014000973664224e-06
155;7.669999831705354e-06
156;1.1005999112967402e-05
157;2.8239992388989776e-06
158;2.6849993446376175e-06
159;4.520999937085435e-06
160;5.505000444827601e-06
161;6.0799993661930785e-06
162;5.131998477736488e-06
163;2.97499900625553e-06
164;2.9240000003483146e-06
165;2.013300036196597e-05
166;5.152000085217878e-06
167;5.9419999161036685e-06
168;2.77800063486211e-06
169;2.68099938693922e-06
170;7.058999472064897e-06
171;5.125999450683594e-06
172;3.420998837100342e-06
173;2.8790000214939937e-06
174;7.197999366326258e-06
175;4.08000050811097e-06
176;6.894999387441203e-06
177;4.524999894783832e-06
178;3.562001438695006e-06
179;3.1639992812415585e-06
180;3.188000846421346e-06
181;3.818000550381839e-06
182;2.950999260065146e-06
183;2.8180002118460834e-06
184;7.448999895132147e-06
185;3.359000402269885e-06
186;6.140000550658442e-06
187;5.374000465963036e-06
188;5.717000021832064e-06
189;6.20500031800475e-06
190;5.142001100466587e-06
191;5.863999831490219e-06
192;5.175999831408262e-06
193;1.1305000953143463e-05
194;7.28899976820685e-06
195;6.4539999584667385e-06
196;3.3540000003995374e-06
197;3.294999260106124e-06
198;3.2830012060003355e-06
199;2.9510010790545493e-06
200;7.393999112537131e-06
201;7.475000529666431e-06
202;5.548999979509972e-06
203;4.075000106240623e-06
204;3.6530000215861946e-06
205;3.4269996831426397e-06
206;4.35399851994589e-06
207;7.014999937382527e-06
208;8.040000466280617e-06
209;3.213999661966227e-06
210;3.0049995984882116e-06
211;5.822999810334295e-06
212;6.878999556647614e-06
213;5.3749990911455825e-06
214;5.91200114286039e-06
215;7.78600042394828e-06
216;8.342998626176268e-06
217;9.823999789659865e-06
218;7.4359995778650045e-06
219;5.767000402556732e-06
220;8.957000318332575e-06
221;1.7004000255838037e-05
222;1.701600012893323e-05
223;6.541000402648933e-06
224;3.3989999792538583e-06
225;3.475999619695358e-06
226;7.695000022067688e-06
227;9.657000191509724e-06
228;4.0409995563095436e-06
229;8.334000085596927e-06
230;3.938001100323163e-06
231;6.973999916226603e-06
232;3.863999154418707e-06
233;7.528000423917547e-06
234;1.4522998753818683e-05
235;7.140000889194198e-06
236;5.3820003813598305e-06
237;4.1290004446636885e-06
238;2.189800034102518e-05
239;3.963999915868044e-06
240;4.834999344893731e-06
241;5.459998646983877e-06
242;1.1610000001383014e-05
243;8.881999747245573e-06
244;7.615999493282288e-06
245;8.52899938763585e-06
246;6.424999810406007e-06
247;1.0793000910780393e-05
248;7.028000254649669e-06
249;8.0619993241271e-06
250;9.437999324291013e-06
251;8.742999852984212e-06
252;6.492000466096215e-06
253;2.114000017172657e-05
254;9.908000720315613e-06
255;7.1739996201358736e-06
256;7.498998456867412e-06
257;8.580998837715015e-06
258;1.7313999705947936e-05
259;9.360999683849514e-06
260;8.336000973940827e-06
261;2.4046999897109345e-05
262;4.044999514007941e-06
263;3.750999894691631e-06
264;3.5200009733671322e-06
265;8.660001185489818e-06
266;1.0535999535932206e-05
267;1.0413999916636385e-05
268;4.036999598611146e-06
269;8.032000550883822e-06
270;9.950999810826033e-06
271;8.248998710769229e-06
272;1.2664000678341836e-05
273;6.42400118522346e-06
274;3.905999619746581e-06
275;8.61000080476515e-06
276;1.044200143951457e-05
277;1.8438000552123412e-05
278;6.943999323993921e-06
279;7.584998456877656e-06
280;4.008999894722365e-06
281;9.326000508735888e-06
282;8.306999006890692e-06
283;2.4301998564624228e-05
284;8.724000508664176e-06
285;1.1066998922615312e-05
286;6.414000381482765e-06
287;8.537001122022048e-06
288;7.81800008553546e-06
289;8.187998901121318e-06
290;1.3892000424675643e-05
291;3.727000148501247e-06
292;8.74699981068261e-06
293;8.197001079679467e-06
294;1.4847000784357078e-05
295;2.096499883919023e-05
296;7.478000043192878e-06
297;1.097899985325057e-05
298;1.223800063598901e-05
299;1.0567000572336838e-05
300;9.764999049366452e-06
301;8.88599970494397e-06
302;9.293000402976759e-06
303;1.509100002294872e-05
304;1.479599995946046e-05
305;8.799999704933725e-06
306;9.905001206789166e-06
307;1.5192999853752553e-05
308;9.872999726212583e-06
309;1.2500999218900688e-05
310;9.850999049376696e-06
311;2.7540001610759646e-05
312;8.936000085668638e-06
313;9.888999557006173e-06
314;8.837001587380655e-06
315;4.0739996620686725e-06
316;2.3455999325960875e-05
317;2.2398999135475606e-05
318;4.464000085135922e-06
319;6.6279990278417245e-06
320;4.432000423548743e-06
321;7.774000550853088e-06
322;7.669999831705354e-06
323;4.282001100364141e-06
324;4.473000444704667e-06
325;5.924999641138129e-06
326;1.099600012821611e-05
327;9.129000318353064e-06
328;1.164800050901249e-05
329;4.796000212081708e-06
330;4.616000296664424e-06
331;5.560999852605164e-06
332;7.3310002335347235e-06
333;7.951000952743925e-06
334;9.123999916482717e-06
335;9.858000339590944e-06
336;5.582000085269101e-06
337;9.883000529953279e-06
338;1.4930999896023422e-05
339;4.596999133354984e-06
340;1.3319000572664663e-05
341;7.978000212460756e-06
342;7.725999239482917e-06
343;7.2069997258950025e-06
344;1.915400025609415e-05
345;7.52600135456305e-06
346;7.463000656571239e-06
347;9.16399949346669e-06
348;1.0189998647547327e-05
349;1.2543998309411108e-05
350;9.482000677962787e-06
351;7.235999873955734e-06
352;8.816999979899265e-06
353;5.015999704482965e-06
354;1.2665999747696333e-05
355;1.04669998108875e-05
356;1.1165999239892699e-05
357;1.4895000276737846e-05
358;9.489000149187632e-06
359;4.888999683316797e-06
360;1.1375999747542664e-05
361;9.900000804918818e-06
362;1.2143000276410021e-05
363;1.0979998478433117e-05
364;1.2104999768780544e-05
365;1.3380000382312573e-05
366;2.2218000594875775e-05
367;8.373001037398353e-06
368;1.2381999113131315e-05
369;4.626001100405119e-06
370;1.1254000128246844e-05
371;7.996999556780793e-06
372;5.251000402495265e-06
373;5.6129993026843295e-06
374;8.030001481529325e-06
375;7.797001671860926e-06
376;8.863999028108083e-06
377;6.9929992605466396e-06
378;7.948998245410621e-06
379;1.1831001756945625e-05
380;1.2065000191796571e-05
381;1.2294000043766573e-05
382;1.2411999705363996e-05
383;7.937000191304833e-06
384;8.135000825859606e-06
385;6.086000212235376e-06
386;1.3730999853578396e-05
387;7.966998964548111e-06
388;5.931000487180427e-06
389;1.2206999599584378e-05
390;8.233000698965043e-06
391;1.0894000297412276e-05
392;1.1529000403243117e-05
393;9.253999451175332e-06
394;8.119999620248564e-06
395;5.952000719844364e-06
396;8.70400072017219e-06
397;8.648999937577173e-06
398;8.471999535686336e-06
399;1.0111998562933877e-05
400;9.57200063567143e-06
401;1.7915999706019647e-05
402;1.0912001016549766e-05
403;1.2275999324629083e-05
404;8.94900040293578e-06
405;9.076000424101949e-06
406;9.18300065677613e-06
407;8.265000360552222e-06
408;9.392999345436692e-06
409;1.0292000297340564e-05
410;1.1158999768667854e-05
411;8.409999281866476e-06
412;8.769000487518497e-06
413;1.2768998203682713e-05
414;8.70400072017219e-06
415;8.708000677870587e-06
416;9.535000572213903e-06
417;8.987000910565257e-06
418;1.1688000085996464e-05
419;1.011099993775133e-05
420;2.1710000510211103e-05
421;8.957000318332575e-06
422;5.357000190997496e-06
423;9.005001629702747e-06
424;1.0135001502931118e-05
425;1.318500108027365e-05
426;8.889999662642367e-06
427;9.69600114331115e-06
428;9.506000424153171e-06
429;8.682000043336302e-06
430;5.83099972573109e-06
431;1.160300053015817e-05
432;1.1322999853291549e-05
433;1.2497999705374241e-05
434;1.0755000403150916e-05
435;1.1870000889757648e-05
436;1.1950000043725595e-05
437;9.887000487651676e-06
438;3.534800089255441e-05
439;3.3447000532760285e-05
440;1.16279989015311e-05
441;1.3528000636142679e-05
442;1.0132998795597814e-05
443;9.106999641517177e-06
444;9.39900019147899e-06
445;8.931600132200401e-05
446;1.0940999345621094e-05
447;1.3074000889901072e-05
448;1.4045999705558643e-05
449;1.5130999599932693e-05
450;1.6178999430849217e-05
451;1.0679999832063913e-05
452;1.2359001630102284e-05
453;6.882999514346011e-06
454;1.4138000551611185e-05
455;9.759000022313558e-06
456;1.032900036079809e-05
457;1.2122000043746084e-05
458;1.1309999536024407e-05
459;1.6710000636521727e-05
460;1.0468998880241998e-05
461;6.730999302817509e-06
462;1.1481000910862349e-05
463;9.863999366643839e-06
464;2.3798000256647356e-05
465;2.818200118781533e-05
466;1.438100116502028e-05
467;1.4629998986492865e-05
468;1.4133000149740838e-05
469;1.2692000382230617e-05
470;1.3783999747829512e-05
471;6.202999429660849e-06
472;1.6398998923250474e-05
473;1.0587000360828824e-05
474;1.3843999113305472e-05
475;1.0882000424317084e-05
476;5.777999831479974e-06
477;7.808999725966714e-06
478;1.0569998266873881e-05
479;2.171300002373755e-05
480;1.1112000720459037e-05
481;1.3919998309575021e-05
482;1.4598999769077636e-05
483;7.339000148931518e-06
484;8.431999958702363e-06
485;1.4424998880713247e-05
486;8.472999979858287e-06
487;1.0293999366695061e-05
488;1.012499888020102e-05
489;1.2141001207055524e-05
490;1.2214000889798626e-05
491;1.1821999578387477e-05
492;7.2069997258950025e-06
493;6.645999746979214e-06
494;1.0487001418368891e-05
495;1.1046000508940779e-05
496;9.33800038183108e-06
497;1.865900048869662e-05
498;1.3820999811287038e-05
499;1.6678999600117095e-05
500;1.3995999324833974e-05
501;1.4739000107510947e-05
502;1.3288001355249435e-05
503;1.8213000657851808e-05
504;1.703400084807072e-05
505;1.1062000339734368e-05
506;1.468399932491593e-05
507;1.495300057285931e-05
508;1.4111001291894354e-05
509;1.1148000339744613e-05
510;1.4313000065158121e-05
511;1.099800101656001e-05
512;3.4947999665746465e-05
513;1.590799911355134e-05
514;8.334000085596927e-06
515;8.491999324178323e-06
516;8.048000381677411e-06
517;1.1079000614699908e-05
518;1.2717000572592951e-05
519;1.9549001081031747e-05
520;1.8067001292365603e-05
521;1.0824000128195621e-05
522;1.1570999049581587e-05
523;6.873999154777266e-06
524;6.591999408556148e-06
525;6.468000719905831e-06
526;6.226000550668687e-06
527;6.0919992392882705e-06
528;1.3209000826464035e-05
529;1.1433998224674724e-05
530;1.1324000297463499e-05
531;7.530999937443994e-06
532;8.822999006952159e-06
533;7.749998985673301e-06
534;9.718000001157634e-06
535;9.12100040295627e-06
536;1.0182999176322483e-05
537;8.588000127929263e-06
538;1.4911000107531436e-05
539;8.553999577998184e-06
540;6.539999958476983e-06
541;6.562999260495417e-06
542;1.1779999113059603e-05
543;1.1322999853291549e-05
544;8.123000952764414e-06
545;1.6664998838678002e-05
546;1.5503001122851856e-05
547;1.0725998436100781e-05
548;8.778999472269788e-06
549;8.666000212542713e-06
550;9.24199957808014e-06
551;7.538999852840789e-06
552;6.866001058369875e-06
553;6.936999852769077e-06
554;1.3949000276625156e-05
555;6.6470001911511645e-06
556;1.2630000128410757e-05
557;6.997999662416987e-06
558;6.846001269877888e-06
559;1.5479001376661472e-05
560;1.206299930345267e-05
561;1.0488000043551438e-05
562;6.784999641240574e-06
563;6.8879999162163585e-06
564;1.2370001059025526e-05
565;1.3410000974545255e-05
566;1.2563999916892499e-05
567;7.763001121929847e-06
568;6.716998541378416e-06
569;1.209699985338375e-05
570;1.2640000932151452e-05
571;1.2892998711322434e-05
572;8.88499926077202e-06
573;8.189999789465219e-06
574;9.69199936662335e-06
575;8.906999937607907e-06
576;1.003400029730983e-05
577;1.0621000910759903e-05
578;9.63300044531934e-06
579;1.0585999916656874e-05
580;8.467000952805392e-06
581;1.065700053004548e-05
582;6.505999408545904e-06
583;7.279000783455558e-06
584;1.3148999641998671e-05
585;1.282800076296553e-05
586;1.3150000086170621e-05
587;1.2309001249377616e-05
588;1.6510999557795003e-05
589;1.2800999684259295e-05
590;7.770999218337238e-06
591;1.3531000149669126e-05
592;1.2874999811174348e-05
593;1.2845999663113616e-05
594;1.9009999959962443e-05
595;1.290399995923508e-05
596;7.68799873185344e-06
597;1.2399999832268804e-05
598;7.306000043172389e-06
599;7.2620005084900185e-06
600;1.6792000678833574e-05
601;1.2877999324700795e-05
602;1.4403000022866763e-05
603;2.2234000425669365e-05
604;8.801000149105676e-06
605;9.805999070522375e-06
606;1.3288999980431981e-05
607;9.396000677952543e-06
608;9.016999683808535e-06
609;7.699998604948632e-06
610;1.3787001080345362e-05
611;1.2758999218931422e-05
612;1.0591000318527222e-05
613;1.0599998859106563e-05
614;7.779000952723436e-06
615;7.310998626053333e-06
616;7.746999472146854e-06
617;7.454000297002494e-06
618;7.324000762309879e-06
619;9.058001523953862e-06
620;7.90499871072825e-06
621;1.3660999684361741e-05
622;1.3232000128482468e-05
623;8.738999895285815e-06
624;7.656000889255665e-06
625;1.3434999345918186e-05
626;2.436700015095994e-05
627;1.4362998626893386e-05
628;9.528999726171605e-06
629;1.3175000276532955e-05
630;1.3561999367084354e-05
631;1.3445000149658881e-05
632;1.4097000530455261e-05
633;1.3504999515134841e-05
634;1.3791999663226306e-05
635;1.3725999451708049e-05
636;1.7111999113694765e-05
637;1.2710999726550654e-05
638;1.0825999197550118e-05
639;1.0237999958917499e-05
640;8.140001227729954e-06
641;1.2974000128451735e-05
642;9.473000318394043e-06
643;4.031000025861431e-05
644;1.555699964228552e-05
645;0.0009891690006043063
646;1.8804999854182824e-05
647;1.6435000361525454e-05
648;1.4122000720817596e-05
649;8.289000106742606e-06
650;2.351300099689979e-05
651;2.2439000531448983e-05
652;1.7348000255879015e-05
653;1.4189001376507804e-05
654;6.260400004975963e-05
655;1.8556000213720836e-05
656;1.5435000022989698e-05
657;1.3065000530332327e-05
658;1.1083000572398305e-05
659;1.0652000128175132e-05
660;9.059998774318956e-06
661;8.71199881657958e-06
662;8.028999218367971e-06
663;8.87100031832233e-06
664;2.2670999896945432e-05
665;1.0957999620586634e-05
666;1.0435000149300322e-05
667;8.024000635487027e-06
668;1.9770001017604955e-05
669;8.779999916441739e-06
670;8.224000339396298e-06
671;1.4111001291894354e-05
672;7.81800008553546e-06
673;8.66899972606916e-06
674;8.524999429937452e-06
675;9.624000085750595e-06
676;2.008199953706935e-05
677;1.7432001186534762e-05
678;7.909000487416051e-06
679;7.987000572029501e-06
680;1.4162000297801569e-05
681;1.4565999663318507e-05
682;1.428399991709739e-05
683;1.4772000213270076e-05
684;1.4739000107510947e-05
685;8.572000297135673e-06
686;9.085000783670694e-06
687;2.0183999367873184e-05
688;5.4864000048837624e-05
689;1.764699845807627e-05
690;1.4867999198031612e-05
691;1.3064000086160377e-05
692;1.2106000212952495e-05
693;1.5506000636378303e-05
694;2.031499934673775e-05
695;1.4870000086375512e-05
696;1.6865000361576676e-05
697;1.7640999431023374e-05
698;1.9797000277321786e-05
699;9.022000085678883e-06
700;8.334000085596927e-06
701;1.5720001101726666e-05
702;1.4582999938284047e-05
703;1.1828000424429774e-05
704;1.5149000319070183e-05
705;1.5222000001813285e-05
706;1.4577000911231153e-05
707;1.6040999980759807e-05
708;1.537899879622273e-05
709;1.1657000868581235e-05
710;2.0793000658159144e-05
711;1.5158000678638928e-05
712;1.4981000276748091e-05
713;2.3003000023891218e-05
714;8.488999810651876e-06
715;1.223599974764511e-05
716;1.5077999705681577e-05
717;2.509399928385392e-05
718;2.2296999304671772e-05
719;7.933000233606435e-06
720;1.5902000086498447e-05
721;2.3282998881768435e-05
722;1.1164000170538202e-05
723;1.4459999874816276e-05
724;1.2144000720581971e-05
725;1.2074999176547863e-05
726;1.5424000594066456e-05
727;1.9903000065824017e-05
728;1.7626998669584282e-05
729;1.5149000319070183e-05
730;1.5240000720950775e-05
731;1.4986999303800985e-05
732;3.503900006762706e-05
733;1.4454000847763382e-05
734;1.487600093241781e-05
735;1.5302999599953182e-05
736;1.0231000487692654e-05
737;2.1466999896802008e-05
738;1.5076999261509627e-05
739;3.7900001188972965e-05
740;2.5414001356693916e-05
741;1.2160999176558107e-05
742;1.6500998754054308e-05
743;1.5448998965439387e-05
744;1.4645998817286454e-05
745;2.680100078578107e-05
746;1.5527999494224787e-05
747;2.6670999432099052e-05
748;2.3734999558655545e-05
749;1.5702000382589176e-05
750;1.1955999070778489e-05
751;6.0151000070618466e-05
752;1.369600067846477e-05
753;1.0256999303237535e-05
754;1.558599979034625e-05
755;1.9140999938827008e-05
756;1.066499862645287e-05
757;2.9186001484049484e-05
758;1.166400033980608e-05
759;1.1004000043612905e-05
760;1.739899926178623e-05
761;9.08800029719714e-06
762;1.596899892319925e-05
763;9.653998858993873e-06
764;1.304299985349644e-05
765;1.7125999875133857e-05
766;1.902399890241213e-05
767;2.490499900886789e-05
768;1.560400050948374e-05
769;1.6013998902053572e-05
770;4.533399987849407e-05
771;2.3798998881829903e-05
772;1.2485999832279049e-05
773;1.369600067846477e-05
774;1.6026999219320714e-05
775;1.2604001312865876e-05
776;1.7283000488532707e-05
777;1.7312999261775985e-05
778;9.176999810733832e-06
779;1.592599983268883e-05
780;1.8066000848193653e-05
781;1.6646999938529916e-05
782;1.6275998859782703e-05
783;1.655100095376838e-05
784;1.7164000382763334e-05
785;1.7114000002038665e-05
786;1.6405001588282175e-05
787;1.0445999578223564e-05
788;1.0253001164528541e-05
789;9.61900150286965e-06
790;1.0400999599369243e-05
791;1.0612000551191159e-05
792;2.315500023541972e-05
793;2.715600021474529e-05
794;1.7623999156057835e-05
795;2.2160000298754312e-05
796;1.3111999578541145e-05
797;1.9346000044606626e-05
798;1.6694999430910684e-05
799;2.8778000341844745e-05
800;2.1939000362181105e-05
801;1.1109999832115136e-05
802;2.875300015148241e-05
803;1.539799995953217e-05
804;2.361999941058457e-05
805;2.050200055236928e-05
806;2.298199979122728e-05
807;2.7096999474451877e-05
808;1.6435000361525454e-05
809;1.0763998943730257e-05
810;9.885001418297179e-06
811;1.6556999980821274e-05
812;1.838000025600195e-05
813;1.8775999706122093e-05
814;4.6871999074937776e-05
815;1.2053000318701379e-05
816;1.172500014945399e-05
817;2.290799966431223e-05
818;2.494100044714287e-05
819;1.72889995155856e-05
820;2.6560001060715877e-05
821;1.710399919829797e-05
822;1.2544000128400512e-05
823;3.141799970762804e-05
824;1.1222999091842212e-05
825;2.8084001314709894e-05
826;1.4048000593902543e-05
827;1.742000131343957e-05
828;4.235800042806659e-05
829;1.825900108087808e-05
830;2.2140000510262325e-05
831;1.445900124963373e-05
832;2.1890000425628386e-05
833;1.789599991752766e-05
834;1.671499921940267e-05
835;2.9582000934169628e-05
836;3.221699989808258e-05
837;2.6948000595439225e-05
838;2.6014999093604274e-05
839;1.805099964258261e-05
840;2.4339000447071157e-05
841;3.455300065979827e-05
842;1.8787999579217285e-05
843;1.8478998754289933e-05
844;1.2988999515073374e-05
845;1.3987000784254633e-05
846;2.3255999622051604e-05
847;2.5769000785658136e-05
848;3.0173001505318098e-05
849;2.6728001103037968e-05
850;1.7262998881051317e-05
851;1.7305001165368594e-05
852;4.071800140081905e-05
853;4.0737000745139085e-05
854;2.336999932595063e-05
855;1.796200012904592e-05
856;1.1393000022508204e-05
857;2.0554000002448447e-05
858;1.057900044543203e-05
859;1.513399911345914e-05
860;1.2815999070880935e-05
861;2.138499985449016e-05
862;1.3883000065106899e-05
863;1.929199970618356e-05
864;2.0183999367873184e-05
865;3.0458000765065663e-05
866;1.86849993042415e-05
867;1.4191999071044847e-05
868;2.0711999241029844e-05
869;1.8258999261888675e-05
870;1.3209000826464035e-05
871;1.4375000318977982e-05
872;1.4413999451790005e-05
873;1.7766000382835045e-05
874;1.788100053090602e-05
875;1.0744999599410221e-05
876;1.9618999431259e-05
877;1.2995000361115672e-05
878;1.970999983313959e-05
879;1.2788999811164103e-05
880;1.9187998987035826e-05
881;1.8246000763610937e-05
882;1.804799831006676e-05
883;1.8275000911671668e-05
884;1.810100002330728e-05
885;1.814499955798965e-05
886;1.816400072129909e-05
887;1.8973998521687463e-05
888;1.917899862746708e-05
889;1.7812000805861317e-05
890;1.745999907143414e-05
891;1.9691000488819554e-05
892;2.007400144066196e-05
893;2.8345999453449622e-05
894;1.782100116543006e-05
895;2.0371999198687263e-05
896;1.8062999515677802e-05
897;1.9144999896525405e-05
898;1.0338999345549382e-05
899;1.9629000234999694e-05
900;1.8827999156201258e-05
901;1.7833001038525254e-05
902;1.871799941000063e-05
903;1.8267000996274874e-05
904;1.3199998647905886e-05
905;1.4898001609253697e-05
906;1.6123000023071654e-05
907;1.451900061510969e-05
908;1.4158000340103172e-05
909;2.1283000023686327e-05
910;1.3766999472863972e-05
911;1.3569999282481149e-05
912;1.592299850017298e-05
913;1.473500014981255e-05
914;1.4899000234436244e-05
915;1.2570999388117343e-05
916;1.0583999028312974e-05
917;1.1193000318598934e-05
918;1.9337001504027285e-05
919;1.4358998669194989e-05
920;1.5179999536485411e-05
921;1.0648998795659281e-05
922;1.1744999937945977e-05
923;2.9420998544082977e-05
924;1.0910998753388412e-05
925;1.0744999599410221e-05
926;2.0535999283310957e-05
927;1.0953999662888236e-05
928;1.9310999050503597e-05
929;2.7535001208889298e-05
930;1.8159000319428742e-05
931;2.080300146189984e-05
932;2.034899989666883e-05
933;2.134200076397974e-05
934;1.815599898691289e-05
935;2.246999974886421e-05
936;1.828600034059491e-05
937;1.8714999896474183e-05
938;1.6138999853865243e-05
939;1.560400050948374e-05
940;1.531799898657482e-05
941;1.5331999748013914e-05
942;1.4519999240292236e-05
943;1.4182000086293556e-05
944;1.0941001164610498e-05
945;1.9025001165573485e-05
946;1.3504999515134841e-05
947;1.555699964228552e-05
948;1.4491000911220908e-05
949;1.631499981158413e-05
950;2.075200063700322e-05
951;1.4822000593994744e-05
952;1.4634000763180666e-05
953;1.6416999642387964e-05
954;1.4822000593994744e-05
955;1.1165000614710152e-05
956;3.0160999813233502e-05
957;1.9737999537028372e-05
958;1.1087000530096702e-05
959;1.1285001164651476e-05
960;2.0704999769805e-05
961;2.0186000256217085e-05
962;1.6418000086559914e-05
963;1.5132000044104643e-05
964;1.4782999642193317e-05
965;1.4162998922984116e-05
966;1.2604001312865876e-05
967;1.986499955819454e-05
968;2.0426001356099732e-05
969;2.058400059468113e-05
970;1.7099999240599573e-05
971;1.2336999134276994e-05
972;2.068799949483946e-05
973;2.221100112365093e-05
974;2.1075000404380262e-05
975;2.0583998775691725e-05
976;2.019600105995778e-05
977;2.0609000785043463e-05
978;2.166900048905518e-05
979;1.9611999960034154e-05
980;2.052300078503322e-05
981;1.1808000635937788e-05
982;1.233999864780344e-05
983;1.3842000043950975e-05
984;1.1493999409140088e-05
985;1.2231999789946713e-05
986;2.0960000256309286e-05
987;2.080000012938399e-05
988;2.1181000192882493e-05
989;1.2155000149505213e-05
990;1.2263000826351345e-05
991;1.4011999155627564e-05
992;2.1541998648899607e-05
993;1.9936000171583146e-05
994;3.098600063822232e-05
995;1.5449999409611337e-05
996;1.575599890202284e-05
997;1.4159999409457669e-05
998;1.4818000636296347e-05
999;1.6213998605962843e-05
1000;1.2877999324700795e-05
