1;8.398999852943234e-06
2;8.859999070409685e-06
3;9.362000128021464e-06
4;1.0435000149300322e-05
5;1.1563999578356743e-05
6;1.3484999726642855e-05
7;1.4455999917117879e-05
8;1.640799928281922e-05
9;1.823899947339669e-05
10;1.758899998094421e-05
11;1.8940998415928334e-05
12;2.2640000679530203e-05
13;2.3780999981681816e-05
14;2.6775000151246786e-05
15;2.7131000024382956e-05
16;3.1269999453797936e-05
17;2.920500082836952e-05
18;3.698400178109296e-05
19;3.6926001484971493e-05
20;3.382500108273234e-05
21;4.167500082985498e-05
22;4.127000102016609e-05
23;4.750200059788767e-05
24;5.194299956201576e-05
25;5.93169988860609e-05
26;5.894100104342215e-05
27;5.4336000175680965e-05
28;5.9697998949559405e-05
29;6.409100024029613e-05
30;7.030099914118182e-05
31;6.180400123412255e-05
32;7.407399971270934e-05
33;7.669399929000065e-05
34;7.926999933260959e-05
35;8.183799945982173e-05
36;8.596699990448542e-05
37;9.29750003706431e-05
38;9.719400077301543e-05
39;0.00010217800081591122
40;0.00012091600001440383
41;0.00011165700016135816
42;0.00013465800111589488
43;0.0001191139999718871
44;0.00011709699901985005
45;0.00015494699982809834
46;0.0001266369999939343
47;0.00013084800048090983
48;0.00015723300020908937
49;0.00012968499868293293
50;0.00018391000048723072
51;0.00015453400010301266
52;0.00017396899966115598
53;0.00016599800073890947
54;0.0001494940006523393
55;0.00020974199833290186
56;0.000572994000322069
57;0.000200276999748894
58;0.0005341689993656473
59;0.0006044190013199113
60;0.0002672829996299697
61;0.00024355999994440936
62;0.0002320809999218909
63;0.00020472500000323635
64;0.00024378099988098256
65;0.0002579949996288633
66;0.00022087300021667033
67;0.000254422999205417
68;0.0002697910003917059
69;0.00027862400020239875
70;0.00027337400024407543
71;0.0003454159996181261
72;0.0002788969995890511
73;0.00024501299958501477
74;0.00032039300094766077
75;0.0002871140004572226
76;0.00031722600033390336
77;0.00034253999911015853
78;0.0003448229999776231
79;0.00035843499972543214
80;0.0003758389993890887
81;0.0008715240001038183
82;0.0006999130000622245
83;0.0007488029987143818
84;0.0003833779992419295
85;0.00040437999996356666
86;0.0004164710007898975
87;0.0004908840001007775
88;0.0008560469996155007
89;0.000770013999499497
90;0.0004385659995023161
91;0.00042957699952239636
92;0.0008286600004794309
93;0.0005379779995564604
94;0.0005299750009726267
95;0.00043946400001004804
96;0.0005142610007169424
97;0.0004925859993818449
98;0.0008119329995679436
99;0.0007627390004927292
100;0.0004956770007993327
101;0.0006465910009865183
102;0.0005616819998977007
103;0.000685594999595196
104;0.0009077620015887078
105;0.0006539890000567539
106;0.000591318999795476
107;0.0006302430010691751
108;0.0007429690012941137
109;0.0006720090004819212
110;0.0006394910014932975
111;0.0005849339995620539
112;0.0006284570008574519
113;0.0006025050006428501
114;0.0009193329988193
115;0.0007341079999605427
116;0.0015789360004418995
117;0.0007908270017651375
118;0.000851516000693664
119;0.0013619440014736028
120;0.0007504000004701084
121;0.0007442520000040531
122;0.000979669999651378
123;0.0008303020003950223
124;0.0009566759999870555
125;0.0008604579998063855
126;0.000830659999337513
127;0.0007887499996286351
128;0.0008623970006738091
129;0.0012931239998579258
130;0.0018587590002425713
131;0.0008140390000335174
132;0.0014508669992210343
133;0.001092366999728256
134;0.0008941209998738486
135;0.0009296900007029762
136;0.0008981880000646925
137;0.0012215759998071007
138;0.001635502998396987
139;0.0014562360011041164
140;0.0019760639988817275
141;0.001470361999963643
142;0.0015182089991867542
143;0.002197882000473328
144;0.0017776799995772308
145;0.0020845609997195425
146;0.0015201890000753338
147;0.002160030000595725
148;0.0017774160005501471
149;0.0010911120007222053
150;0.001075336000212701
151;0.0010213419991487172
152;0.001558800000566407
153;0.0011655859998427331
154;0.0019566900009522215
155;0.0012277099995117169
156;0.0033804539998527616
157;0.001261604000319494
158;0.0025441720008529956
159;0.0015532319994235877
160;0.0019843709997076076
161;0.00231152100059262
162;0.0017595620010979474
163;0.0012028589990222827
164;0.0017136189999291673
165;0.0016890980004973244
166;0.002080391999697895
167;0.0016867190006450983
168;0.0011906689996976638
169;0.0020930139999109088
170;0.0017658830001892056
171;0.0027111320014228113
172;0.0014922819991625147
173;0.0014909399997122819
174;0.0016180849997908808
175;0.001659216999541968
176;0.0018744080007309094
177;0.0019252000001870329
178;0.001484340000388329
179;0.0018200000013166573
180;0.001657639999393723
181;0.0019149529998685466
182;0.0014680040003440809
183;0.0025137100001302315
184;0.0019028570004593348
185;0.0025735660001373617
186;0.00219003399979556
187;0.0020412970006873365
188;0.0023532390005129855
189;0.0018698010007938137
190;0.0032768929995654617
191;0.0028324830000201473
192;0.003741188000276452
193;0.0022170869997353293
194;0.0027640429998427862
195;0.003556605999619933
196;0.0019167160007782513
197;0.0019452350006758934
198;0.0023156240004027495
199;0.002073304000077769
200;0.004090893000466167
201;0.0018088549986714497
202;0.002400756000497495
203;0.002300586000274052
204;0.0020450259999051923
205;0.0019035830009670462
206;0.002554202001192607
207;0.0027691880004567793
208;0.002017786999203963
209;0.002401920999545837
210;0.004868769998211064
211;0.002080053000099724
212;0.002440881999064004
213;0.004577536999931908
214;0.005109420000735554
215;0.004382482000437449
216;0.004406468999150093
217;0.002712878000238561
218;0.002365541000472149
219;0.004433783999047591
220;0.0035570020008890424
221;0.0037797229997522663
222;0.004429861000971869
223;0.002172127000449109
224;0.002355452999836416
225;0.0025621179993322585
226;0.0036222709986759583
227;0.003760450001209392
228;0.0028646980008488754
229;0.00317782099955366
230;0.0027943210006924346
231;0.0026336669998272555
232;0.009174159000394866
233;0.0034343000006629154
234;0.0046185139999579405
235;0.003078158000789699
236;0.003886418999172747
237;0.004786555000464432
238;0.004361000999779208
239;0.004740903999845614
240;0.004634164999515633
241;0.0034956839990627486
242;0.004833459999645129
243;0.0056540990008215886
244;0.003852085001199157
245;0.003435839000303531
246;0.003211616998669342
247;0.0028669280000030994
248;0.002927313998952741
249;0.004834209001273848
250;0.006359996999890427
251;0.007476446999135078
252;0.00513941999997769
253;0.0051576349997048965
254;0.005287322999720345
255;0.00555030500072462
256;0.003171274000123958
257;0.0049743420004233485
258;0.0033372489997418597
259;0.0049210580000362825
260;0.004899825999018503
261;0.004330737998316181
262;0.0031308569996326696
263;0.0034237479994772
264;0.003953096000259393
265;0.005138291999173816
266;0.006942411999261822
267;0.0036950329995306674
268;0.0033818530009739334
269;0.0035428659994067857
270;0.006787984000766301
271;0.006695574998957454
272;0.0065803319994302
273;0.004223207999530132
274;0.01258900099855964
275;0.010095296998770209
276;0.011449355000877404
277;0.00626359000125376
278;0.003925506000086898
279;0.003474322998954449
280;0.008694224999999278
281;0.0074290270003984915
282;0.007445523000569665
283;0.008564665000449168
284;0.008618632999059628
285;0.00625564999972994
286;0.005592870000327821
287;0.004833287999645108
288;0.006361179999657907
289;0.012996609999390785
290;0.006832088000010117
291;0.005001478999474784
292;0.0051969519990962
293;0.007133142000384396
294;0.015350900001067203
295;0.009881312000288744
296;0.010809519000758883
297;0.009845335000136402
298;0.008617657000286272
299;0.011912051999388495
300;0.011561141998754465
301;0.013173281999115716
302;0.01751402199988661
303;0.010447016000398435
304;0.0063022150006872835
305;0.011478415999590652
306;0.008822423998935847
307;0.014322068000183208
308;0.009429993999219732
309;0.00888069299980998
310;0.009862292999969213
311;0.00765995700021449
312;0.007543039000665885
313;0.007108955998774036
314;0.007999370000106865
315;0.0049601959999563405
316;0.009366509000756196
317;0.0056329059989366215
318;0.006211480000274605
319;0.006459435000579106
320;0.004478431001189165
321;0.004913699000098859
322;0.005700771000192617
323;0.004408728000271367
324;0.004680151998400106
325;0.005117382999742404
326;0.004701269999713986
327;0.004643484999178327
328;0.006514361999506946
329;0.0056285589998879
330;0.0052401119992282474
331;0.005661107999912929
332;0.005327109000063501
333;0.010907777001193608
334;0.008349564999662107
335;0.0065761370005930075
336;0.005081559000245761
337;0.006716599000355927
338;0.007796631000019261
339;0.005079503000160912
340;0.007147054000597564
341;0.007741211000393378
342;0.0068029520007257815
343;0.005284002998450887
344;0.006954202000997611
345;0.0071197950001078425
346;0.005515114999070647
347;0.006256755001231795
348;0.01278909000029671
349;0.01266376199964725
350;0.010908633999861195
351;0.008906834000299568
352;0.019181526000465965
353;0.010211253000306897
354;0.008269154001027346
355;0.008875436999005615
356;0.008376780000617146
357;0.011528847999215941
358;0.007658671000172035
359;0.011149271000249428
360;0.011639898000794346
361;0.010514949999560486
362;0.011081131999162608
363;0.012907266000183881
364;0.009541073999571381
365;0.009168225000394159
366;0.007544912999946973
367;0.008059792000494781
368;0.007686708999244729
369;0.008393804999286658
370;0.007461313000021619
371;0.008282045999294496
372;0.006867022000733414
373;0.00796512900160451
374;0.011015508998752921
375;0.009567962999426527
376;0.006894779000504059
377;0.008497429998897132
378;0.011039143000743934
379;0.007133756998882745
380;0.012136526000176673
381;0.015225687000565813
382;0.008244927001214819
383;0.006972764998863568
384;0.008048867999605136
385;0.007325994998609531
386;0.007402172999718459
387;0.0069625849992007716
388;0.00754497799971432
389;0.008119062998957816
390;0.009689038000942674
391;0.02176413999950455
392;0.009501514001385658
393;0.007870574001572095
394;0.009111815999858663
395;0.008572875000027125
396;0.008064166000622208
397;0.007548215000497294
398;0.00949268800104619
399;0.008105956998406327
400;0.007910294998509926
401;0.007237624999106629
402;0.013475985999320983
403;0.009231452000676654
404;0.009085207000680384
405;0.008404950998738059
406;0.008905175998734194
407;0.012101979000362917
408;0.009150216999842087
409;0.008178517999112955
410;0.008297665999634773
411;0.008962506999523612
412;0.01036182200004987
413;0.007814456999767572
414;0.009424287000001641
415;0.009803097998883459
416;0.01166279199969722
417;0.011294178999378346
418;0.009461728001042502
419;0.009432709999600775
420;0.010959633000311442
421;0.010030590001406381
422;0.009710185999210807
423;0.011025093001080677
424;0.011866953998833196
425;0.024968592999357497
426;0.01095640200037451
427;0.011274233000222011
428;0.010133212999789976
429;0.013171781998607912
430;0.00993255799949111
431;0.012590712998644449
432;0.024876530000256025
433;0.012867948000348406
434;0.02748395399976289
435;0.01592136500039487
436;0.014479645000392338
437;0.015196844999081804
438;0.02004286700139346
439;0.011319695000565844
440;0.012874164000095334
441;0.01107986399983929
442;0.01768678200096474
443;0.01759886999934679
444;0.018675760000405717
445;0.028719689000354265
446;0.035956326999439625
447;0.05556171899843321
448;0.01514247900013288
449;0.01686430100016878
450;0.02220188800129108
451;0.01096909400075674
452;0.015065265999510302
453;0.017846217000624165
454;0.025079854000068735
455;0.01125976099865511
456;0.01738300699980755
457;0.02705643700028304
458;0.02675585399992997
459;0.01548215200091363
460;0.012594189000083134
461;0.011458797000159393
462;0.012492619000113336
463;0.02578196600006777
464;0.011017098999218433
465;0.03073530999972718
466;0.01506146199972136
467;0.016054519999670447
468;0.01439791299890203
469;0.03441196300082083
470;0.013090612999803852
471;0.01298593399951642
472;0.013898766999773216
473;0.012308448000112548
474;0.012863942998592393
475;0.026129390000278363
476;0.01119181800095248
477;0.012370091999400756
478;0.012409421999109327
479;0.011671476999254082
480;0.012058819998856052
481;0.011813977000201703
482;0.022338896000292152
483;0.011890324998603319
484;0.011568808999072644
485;0.01430014499965182
486;0.013313184999788064
487;0.012556770998344291
488;0.023373207999611623
489;0.01571157099897391
490;0.015417283999340725
491;0.014174939000440645
492;0.018884536000769003
493;0.013311217000591569
494;0.026883880000241334
495;0.013269129000036628
496;0.02014064899958612
497;0.013785410999844316
498;0.018823996999344672
499;0.038850618999276776
500;0.03821396700004698
501;0.0219102089995431
502;0.017518408998512314
503;0.04547299700061558
504;0.03874728499977209
505;0.017055071000868338
506;0.014350362000186578
507;0.02209674700134201
508;0.015608517000146094
509;0.013889562998883775
510;0.014751339000213193
511;0.01675488500040956
512;0.014114986999629764
513;0.01240424199932022
514;0.013709124999877531
515;0.013920186000177637
516;0.014568800999768428
517;0.021534657000302104
518;0.017866504000267014
519;0.014078375999815762
520;0.013912020000134362
521;0.014675553000415675
522;0.015798223001183942
523;0.01306859199939936
524;0.014028454999788664
525;0.013579933000073652
526;0.012796406999768806
527;0.020154006000666413
528;0.012746606998916832
529;0.014453510000748793
530;0.01304289899962896
531;0.013392835000558989
532;0.015218057000311092
533;0.013992418000270845
534;0.014126299998679315
535;0.013812642999255331
536;0.01406353200036392
537;0.01386956399983319
538;0.013694646000658395
539;0.01714102599908074
540;0.015505144001508597
541;0.014109003999692504
542;0.014197827000316465
543;0.014193985000019893
544;0.018194543999925372
545;0.03429666800002451
546;0.014930665998690529
547;0.01399306900020747
548;0.015406450000227778
549;0.014305249000244658
550;0.014694514999064268
551;0.014755119000255945
552;0.014475134001258994
553;0.0160877199996321
554;0.018732731999989483
555;0.015581740999550675
556;0.01462961200013524
557;0.015227167999910307
558;0.015034967998872162
559;0.015785657000378706
560;0.015629753999746754
561;0.0142192140010593
562;0.01509072899898456
563;0.015672445000745938
564;0.01595135699972161
565;0.015789474000484915
566;0.016358991000743117
567;0.01542304100075853
568;0.01599990000067919
569;0.016570563999266597
570;0.016422686998339486
571;0.01528921100180014
572;0.015639582999938284
573;0.016200239000681904
574;0.01650084299944865
575;0.01612822799870628
576;0.015476839000257314
577;0.016042887998992228
578;0.01684195699999691
579;0.016171836001376505
580;0.015750536000268767
581;0.0166424740000366
582;0.017191773000376998
583;0.01812298299955728
584;0.01658438799859141
585;0.017825490000177524
586;0.01705862599919783
587;0.017255038001167122
588;0.017471830999056692
589;0.017486633998487378
590;0.016841939001096762
591;0.017090600000301492
592;0.017144659999758005
593;0.01763294800002768
594;0.01752620399929583
595;0.01710055100011232
596;0.017000519999783137
597;0.01643560100092145
598;0.016953239999565994
599;0.018070339001496905
600;0.01768804600033036
601;0.018015729998296592
602;0.018018679998931475
603;0.017480634998719324
604;0.01914059099908627
605;0.020101273999898694
606;0.0190889799996512
607;0.01930913599971973
608;0.01717702600035409
609;0.03667654300079448
610;0.01956266399974993
611;0.019375955000214162
612;0.01858924800035311
613;0.018091218998961267
614;0.017841995000708266
615;0.020157393000772572
616;0.018714866000664188
617;0.018233005999718443
618;0.018146660000638803
619;0.018183629999839468
620;0.019370342000911478
621;0.019444466999630095
622;0.02018358699933742
623;0.01802022300034878
624;0.018831660001524142
625;0.018703113999436027
626;0.021116253001309815
627;0.019866431999616907
628;0.023484456000005594
629;0.01980827700026566
630;0.01946052499988582
631;0.020951762000549934
632;0.02022503399894049
633;0.02064156400047068
634;0.022210962999452022
635;0.02585525800168398
636;0.019790964001003886
637;0.019369408999409643
638;0.02434330100004445
639;0.020607256999937817
640;0.020899126000585966
641;0.019783477000601124
642;0.061343568999291165
643;0.05088675800107012
644;0.0319932250004058
645;0.024844646999554243
646;0.02352744400013762
647;0.059624962999805575
648;0.019432139000855386
649;0.021260685000015656
650;0.02158408499963116
651;0.02383768700019573
652;0.02129481100018893
653;0.02670146200034651
654;0.026913803001662018
655;0.022062519999963115
656;0.024143512000591727
657;0.020814469000470126
658;0.029173525999794947
659;0.028948517001481378
660;0.023630740999578848
661;0.022232257999348803
662;0.02324110299923632
663;0.023848826998801087
664;0.021854050999536412
665;0.020804951000172878
666;0.02832910799952515
667;0.02370298999994702
668;0.02250684899991029
669;0.020915781999065075
670;0.024826884999129106
671;0.02435504400091304
672;0.022850838000522344
673;0.02269183199859981
674;0.02258256899949629
675;0.02754966900101863
676;0.031235293999998248
677;0.02590697900086525
678;0.022480704001281993
679;0.02290305700080353
680;0.02371549500094261
681;0.02369897600146942
682;0.02356368599976122
683;0.02455812500011234
684;0.02351816400005191
685;0.026004262999776984
686;0.028095178000512533
687;0.02866337100022065
688;0.03045312300127989
689;0.027675960000124178
690;0.028307038999628276
691;0.023893748999398667
692;0.04714718000104767
693;0.03310121599861304
694;0.027068796998719336
695;0.03143441599968355
696;0.028905580000355258
697;0.029001136999795563
698;0.023822817000109353
699;0.024849162999089458
700;0.023796100000254228
701;0.024048724000749644
702;0.02342983200105664
703;0.024879320000763983
704;0.02479527200011944
705;0.024957088999144617
706;0.025359489000038593
707;0.02452912000080687
708;0.03443867699934344
709;0.03687376699963352
710;0.026113406998774735
711;0.026059633999466314
712;0.028658874000029755
713;0.026615185999617097
714;0.02540532599959988
715;0.02825905099962256
716;0.026187467999989167
717;0.02705915699880279
718;0.02458613700036949
719;0.036774848000277416
720;0.028746793999744114
721;0.02580902900081128
722;0.026065652000397677
723;0.02605441299965605
724;0.02634242200110748
725;0.025133599001492257
726;0.02598989100079052
727;0.02672184500079311
728;0.02609729200048605
729;0.02815261300020211
730;0.026913981999314274
731;0.029438282999763032
732;0.02790187300161051
733;0.02771346900044591
734;0.0630119730012666
735;0.02706853599920578
736;0.029959911000332795
737;0.02820955500101263
738;0.030965216999902623
739;0.030637688998467638
740;0.03017034700133081
741;0.03355646299860382
742;0.02992430499944021
743;0.04125701899829437
744;0.03603757500059146
745;0.028579016998264706
746;0.033929166000234545
747;0.027844309999636607
748;0.03205741599958856
749;0.028671541000221623
750;0.04948789799891529
751;0.033685629001411144
752;0.03483665500061761
753;0.03498421499898541
754;0.031203057000311674
755;0.03067792100046063
756;0.03417036099926918
757;0.03164214699972945
758;0.030704864000654197
759;0.03638504299851775
760;0.030657766999866
761;0.03351050300079805
762;0.03265934499904688
763;0.02970240700051363
764;0.028646815999309183
765;0.08486864299993613
766;0.03279217300041637
767;0.035065516000031494
768;0.033229661001314525
769;0.03261019099954865
770;0.08483447899925523
771;0.029180200999689987
772;0.030558614000256057
773;0.03317337599946768
774;0.03227513999991061
775;0.08041413300088607
776;0.035280574000353226
777;0.030273577000116347
778;0.029118172999005765
779;0.032513546999325627
780;0.029707928999414435
781;0.029945330999908037
782;0.03408532899993588
783;0.02975935200083768
784;0.03403412800071237
785;0.03026726099960797
786;0.031191627000225708
787;0.03165234299922304
788;0.029921674999059178
789;0.03129726000042865
790;0.030161783999574254
791;0.031341916999735986
792;0.03275713800030644
793;0.033987014001468197
794;0.038337061001584516
795;0.04857405800066772
796;0.0490698710000288
797;0.032654175000061514
798;0.053401609000502503
799;0.03999349399964558
800;0.034281870000995696
801;0.03612782500022149
802;0.034842640001443215
803;0.03480810900146025
804;0.04131179300020449
805;0.05648146500061557
806;0.046026285001062206
807;0.04348287200082268
808;0.033331832999465405
809;0.03748459099915635
810;0.03357282999968447
811;0.03250639300131297
812;0.03688086500005738
813;0.03394937399934861
814;0.036530944000332966
815;0.03643240500059619
816;0.03435634099878371
817;0.03968689200155495
818;0.03245190300003742
819;0.03319003099932161
820;0.03760316199986846
821;0.03888518999883672
822;0.03374516399890126
823;0.03989758200077631
824;0.037491754001166555
825;0.03591319699989981
826;0.03976526499900501
827;0.03985202199874038
828;0.03764793799928157
829;0.03680815700136009
830;0.03516682299959939
831;0.10341852399869822
832;0.034330230999330524
833;0.036649682000643224
834;0.03552167899943015
835;0.09073953699953563
836;0.09856553999998141
837;0.059651490999385715
838;0.046800936999716214
839;0.0511036879997846
840;0.10364700599893695
841;0.09149192400036554
842;0.04620175499985635
843;0.034389470998576144
844;0.034734087999822805
845;0.08776671700070438
846;0.04204889999891748
847;0.040769838999040076
848;0.03785771600087173
849;0.03779167900029279
850;0.035617125999124255
851;0.101044525999896
852;0.04121616700103914
853;0.04837699500058079
854;0.042360630999610294
855;0.04363028400075564
856;0.08364377200086892
857;0.03599792900058674
858;0.035699210999155184
859;0.03625300900057482
860;0.0367912769997929
861;0.03925893099949462
862;0.044133583000075305
863;0.051824133999616606
864;0.04439067400016938
865;0.0464604139997391
866;0.03705552200153761
867;0.04388371400091273
868;0.03981792099875747
869;0.039001462999294745
870;0.03781434499978786
871;0.03728230100023211
872;0.04448551800123823
873;0.04449487400052021
874;0.03487632399992435
875;0.036544537000736455
876;0.037737347000074806
877;0.037765893001051154
878;0.0418992029990477
879;0.044237931000679964
880;0.038072811999882106
881;0.03838380099841743
882;0.03792807100035134
883;0.03707598899927689
884;0.0376051279999956
885;0.038558009000553284
886;0.03889254200112191
887;0.039714524000373785
888;0.038091709999207524
889;0.03852074399947014
890;0.04169290999925579
891;0.038876374001119984
892;0.039731834000122035
893;0.03857687299932877
894;0.039474957000493305
895;0.04053888199996436
896;0.03856796899890469
897;0.03950880800039158
898;0.03989067799921031
899;0.04083195800012618
900;0.03889639800036093
901;0.040671302000191645
902;0.03861543499988329
903;0.04098469200107502
904;0.037361615999543574
905;0.04171814999972412
906;0.03963161100000434
907;0.04017147300146462
908;0.04110058799960825
909;0.040839319000951946
910;0.0459233880010288
911;0.04035721400032344
912;0.045813552000254276
913;0.04149722499823838
914;0.04172271700008423
915;0.04112625599918829
916;0.04075137499967241
917;0.04336460400008946
918;0.04004098400037037
919;0.04108226700009254
920;0.04208339800061367
921;0.0410724619996472
922;0.04180144900055893
923;0.04029052500118269
924;0.041349298000568524
925;0.040562473999671056
926;0.04260157799944864
927;0.04657012999996368
928;0.043406976999904145
929;0.04298902799928328
930;0.042661085000872845
931;0.04436134800016589
932;0.04446458600068581
933;0.04446534399903612
934;0.043453067000882584
935;0.04356684999947902
936;0.0425667590006924
937;0.042506298999796854
938;0.04322047699861287
939;0.043196204998821486
940;0.04101974399964092
941;0.04346623300079955
942;0.0438860089998343
943;0.04362964999927499
944;0.049360555998646305
945;0.04515553500095848
946;0.044091996000133804
947;0.04290195499925176
948;0.044304248000116786
949;0.04341232000115269
950;0.043406336999396444
951;0.04352996000125131
952;0.04410384999937378
953;0.04547606699998141
954;0.04453553900020779
955;0.05572119299904443
956;0.045312470001590555
957;0.04319863999990048
958;0.04577669500031334
959;0.04572824299975764
960;0.04976187300053425
961;0.04508299299959617
962;0.045805794001353206
963;0.04668683300042176
964;0.04572106300111045
965;0.04440458200042485
966;0.04810145100054797
967;0.04570806099945912
968;0.04462301100102195
969;0.04689286299981177
970;0.04724862699913501
971;0.05475099500108627
972;0.045600702998854103
973;0.04598327300118399
974;0.04763053599890554
975;0.04602296099983505
976;0.050122202999773435
977;0.05029058800027997
978;0.046365734000573866
979;0.04683762499917066
980;0.11176069999964966
981;0.04956563500127231
982;0.0477824720001081
983;0.04653543699896545
984;0.04688089199953538
985;0.048679616000299575
986;0.05268543700003647
987;0.04885485699924175
988;0.046931918999689515
989;0.04939034099879791
990;0.04877103199942212
991;0.053533703001448885
992;0.048681505999411456
993;0.04703160899953218
994;0.048205882998445304
995;0.050656760000492795
996;0.05329351299951668
997;0.04875867800001288
998;0.05059733199959737
999;0.04862462600067374
1000;0.04730544800077041
