1;1.9561000044632237e-05
2;4.052700023748912e-05
3;5.277400032355217e-05
4;7.212699983938364e-05
5;8.945599984144792e-05
6;0.00010788399958983064
7;0.00012140900071244687
8;0.00015972500023053726
9;0.000156561000039801
10;0.00017315000059170416
11;0.00019600300038291607
12;0.00020695999955933075
13;0.0002220919996034354
14;0.0002392029991824529
15;0.00025664700024208287
16;0.00027459400007501245
17;0.0002882349999708822
18;0.00031017299988889135
19;0.00033254499976465013
20;0.00034352300008322345
21;0.00035866799953510053
22;0.00037825300023541786
23;0.0003913199998351047
24;0.0004116810005143634
25;0.0004252220005582785
26;0.00046132799980114214
27;0.00045773200054100016
28;0.0004723960000774241
29;0.0004905299992969958
30;0.0005124910003360128
31;0.0005216090003159479
32;0.0005567739999605692
33;0.000549813999896287
34;0.0005712150004910654
35;0.0008165320004991372
36;0.000630532000286621
37;0.0006131569998615305
38;0.0006346840000333032
39;0.0006615339998461423
40;0.0006622620003327029
41;0.0006964439999137539
42;0.0007162259998949594
43;0.0007133799999792245
44;0.0007292959999176674
45;0.0007416800008286373
46;0.0007555340007456834
47;0.0007969170001160819
48;0.0007915969999885419
49;0.0008059109995883773
50;0.0008247929999924963
51;0.0008351760006917175
52;0.0008651329999338486
53;0.0008786850003161817
54;0.0009089610002774862
55;0.0008953169999585953
56;0.0009306469992225175
57;0.0009297329997934867
58;0.0009666480000305455
59;0.0010132050001629977
60;0.0010041189998446498
61;0.0011091740007032058
62;0.0010053189998870948
63;0.0010333669997635297
64;0.001044710000314808
65;0.001056129999597033
66;0.0010865209997064085
67;0.001077097999768739
68;0.001137233000008564
69;0.0011462309994385578
70;0.0012388400000418187
71;0.001174494000224513
72;0.0011598000000958564
73;0.001813765999941097
74;0.0013157539997337153
75;0.0012651050001295516
76;0.0013744710004175431
77;0.001238761000422528
78;0.0012719390006168396
79;0.00127421500019409
80;0.001278566000110004
81;0.0013190250001571258
82;0.0013178039998820168
83;0.001316034000410582
84;0.0013597990000562277
85;0.0013582849996964796
86;0.0014115739995759213
87;0.0018781479993776884
88;0.0014066809999349061
89;0.0013973080003779614
90;0.0014524400003210758
91;0.0014300760003607138
92;0.0021756669993919786
93;0.0014699819994348218
94;0.001478142999985721
95;0.0023824619993320084
96;0.0026569600004222593
97;0.0027272380002614227
98;0.0028204789996379986
99;0.0029596489994219155
100;0.0025257749994125334
101;0.0016065350000644685
102;0.0029251969999677385
103;0.0030371339998964686
104;0.0027061509999839473
105;0.00298999200003891
106;0.002564241999607475
107;0.0024756789998718887
108;0.0030841920006423607
109;0.002518713000426942
110;0.0029772689995297696
111;0.0029306930000529974
112;0.0018435479996696813
113;0.002255035000416683
114;0.0017346919994452037
115;0.0017793560000427533
116;0.0018075300004056771
117;0.001764988999639172
118;0.0018265099997734069
119;0.0020601099995474215
120;0.0017909810003402526
121;0.0032913710001594154
122;0.0030327599997690413
123;0.0033137219998025103
124;0.00268587899972772
125;0.0035086550005871686
126;0.002959301999908348
127;0.0022068449998187134
128;0.0019709870002770913
129;0.002001349000238406
130;0.0021395819994722842
131;0.0019458409997241688
132;0.0021386260004874202
133;0.002854793000551581
134;0.0037264289994709543
135;0.0035943330003647134
136;0.0024711420001040096
137;0.0027789340001618257
138;0.002042327999333793
139;0.0020088509991182946
140;0.002233574999991106
141;0.0028605429997696774
142;0.0022760639994885423
143;0.002622321999297128
144;0.0021405779998531216
145;0.0022374689997377573
146;0.0020950780008206493
147;0.0024226989999078796
148;0.002173859000322409
149;0.0031455709995498182
150;0.002158066999982111
151;0.0022277090001807665
152;0.0023425959998348844
153;0.003986314999565366
154;0.0030002370003785472
155;0.0025422589997106115
156;0.002262532999338873
157;0.0022166939997987356
158;0.00309085699973366
159;0.0022083459998611943
160;0.00228263299959508
161;0.002274800000122923
162;0.0022772090005673817
163;0.003181347999998252
164;0.0022638430000370136
165;0.0032621440004731994
166;0.0023357770005532075
167;0.003532531999553612
168;0.0023456819999410072
169;0.003403273000003537
170;0.004270317000191426
171;0.003194107000126678
172;0.0024799239999993006
173;0.002483419999407488
174;0.002482194000549498
175;0.003456687999459973
176;0.0024556409998695017
177;0.0035722599996006466
178;0.003570008999304264
179;0.0024625639998703264
180;0.002690981999876385
181;0.0025675790002424037
182;0.002610704000289843
183;0.0028339370001049247
184;0.002548374999605585
185;0.0028755819994330523
186;0.0025776069996936712
187;0.0028570399999807705
188;0.004582675999699859
189;0.004672021999795106
190;0.0033624070001678774
191;0.0033539799997015507
192;0.0034178390005763504
193;0.004367927999737731
194;0.0047366150001835194
195;0.0049806069991973345
196;0.002652354999554518
197;0.0027648669993141084
198;0.00405231599961553
199;0.0027469740007290966
200;0.002716695000344771
201;0.002740957999776583
202;0.00267522000012832
203;0.0037054539998280234
204;0.0029199310001786216
205;0.002835101000528084
206;0.002763290999610035
207;0.002846752000550623
208;0.003090131000135443
209;0.002765993000139133
210;0.002728503000071214
211;0.0029242569999041734
212;0.003316796999570215
213;0.0028677079999397392
214;0.0028082529997845995
215;0.0029406450003079954
216;0.00363948700032779
217;0.003807048999988183
218;0.00392075699983252
219;0.0040255659996546456
220;0.0030433590000029653
221;0.003115151999736554
222;0.0029037970007266267
223;0.0028428819996406673
224;0.0029391959997155936
225;0.0029886289994465187
226;0.003133563000119466
227;0.0053663939997932175
228;0.002891610999540717
229;0.0028794670006391243
230;0.003553419000127178
231;0.003794575000028999
232;0.0029840279994459706
233;0.003221600999495422
234;0.003500511000311235
235;0.0030663860006825416
236;0.0029478209999069804
237;0.0037951440008328063
238;0.0029925010003353236
239;0.003151961999719788
240;0.0039182809996418655
241;0.0032254470006591873
242;0.0032766439999249997
243;0.003327741000248352
244;0.0033776170002965955
245;0.0032155840008272207
246;0.003278837999459938
247;0.0030378709998331033
248;0.0030996359992059297
249;0.003168473999721755
250;0.003080153999690083
251;0.003059722000216425
252;0.003893793999850459
253;0.0055239260000234935
254;0.004817497000658477
255;0.005524483999579388
256;0.003454769000200031
257;0.003299826999864308
258;0.0032887940005821292
259;0.0032539150006414275
260;0.004101692000404
261;0.004218893999677675
262;0.003688835000502877
263;0.004105889000129537
264;0.003173733999574324
265;0.0031825099995330675
266;0.0039773340004103375
267;0.005487847999575024
268;0.003964753999753157
269;0.003361891999702493
270;0.0032723659996918286
271;0.0033248070003537578
272;0.0032011089997467934
273;0.0032193030001508305
274;0.005722906999835686
275;0.0040520000002288725
276;0.004465945999982068
277;0.005611444999885862
278;0.003797422999923583
279;0.0035519120001481497
280;0.003223792999961006
281;0.003499143000226468
282;0.003383817999747407
283;0.003300056000625773
284;0.003313552999316016
285;0.0032598090001556557
286;0.004220067999995081
287;0.005138802000146825
288;0.004432040999745368
289;0.0041665230000944575
290;0.003293775999736681
291;0.0035211710001021856
292;0.004258740000295802
293;0.005627436999930069
294;0.0036031449999427423
295;0.0036185809995004092
296;0.003525754999827768
297;0.00434833199960849
298;0.00486060200000793
299;0.003769619999729912
300;0.0037541600004260545
301;0.004868657999395509
302;0.004371124999124731
303;0.004157674999987648
304;0.004344754999692668
305;0.0033922789998541703
306;0.004452578999917023
307;0.003403093999622797
308;0.003571565999664017
309;0.003972667000198271
310;0.003388319999430678
311;0.00412640000013198
312;0.004228924000017287
313;0.00462258599964116
314;0.004379478000373638
315;0.0044189969994477
316;0.0035450479999781237
317;0.003551486999640474
318;0.0034595520000948454
319;0.003719049999745039
320;0.0035076499998467625
321;0.004383212999528041
322;0.003964333000112674
323;0.004474375000427244
324;0.003521738000017649
325;0.003540276000421727
326;0.0035924750000049244
327;0.004434714999661082
328;0.0047838669997872785
329;0.0037528990005739615
330;0.004288582999834034
331;0.0037920149998171837
332;0.00376969800072402
333;0.0034938700000566314
334;0.004412924999996903
335;0.0037750740002593375
336;0.004146250000303553
337;0.006013391999658779
338;0.00366772100005619
339;0.0039778060008757166
340;0.004896205000477494
341;0.005129430999659235
342;0.005186972999581485
343;0.004947372000060568
344;0.0051681189997907495
345;0.004658195000047272
346;0.00544673900003545
347;0.0070593890004602144
348;0.007164188000388094
349;0.004847113999858266
350;0.004919811000036134
351;0.004330336999373685
352;0.00413272199966741
353;0.006012119999468268
354;0.004018372000246018
355;0.0043491830001585186
356;0.005230573999142507
357;0.004633444999853964
358;0.0043634929998006555
359;0.004060452999510744
360;0.0063352920005854685
361;0.004777895999723114
362;0.00401526199948421
363;0.004245252999680815
364;0.003829405000033148
365;0.004765044000123453
366;0.004698486000052071
367;0.003817022000475845
368;0.005133959999511717
369;0.006202530000336992
370;0.006301057999735349
371;0.004817291999643203
372;0.003961800999604748
373;0.003982147999522567
374;0.004532611999820801
375;0.004253012999470229
376;0.004306351000195718
377;0.004175429000497388
378;0.004857230000197887
379;0.004575699999804783
380;0.004678338999838161
381;0.003994556999714405
382;0.006012304000250879
383;0.004468010999516991
384;0.005497057999491517
385;0.0038135220002004644
386;0.006119108999882883
387;0.004669756999646779
388;0.0047811029999138555
389;0.005145645999618864
390;0.00391749600021285
391;0.0041694530000313534
392;0.004483568000068772
393;0.005048031000114861
394;0.0046345480004674755
395;0.004534762999355735
396;0.005733072999646538
397;0.0046297669996420154
398;0.004182196999863663
399;0.0043062879994977266
400;0.004179650999503792
401;0.0038123060003272258
402;0.004650475000744336
403;0.005087288000140688
404;0.005139335999956529
405;0.004876693000369414
406;0.0037254460003168788
407;0.0038032310003472958
408;0.004502607000176795
409;0.004699160000200209
410;0.0060119979998489725
411;0.004832892000194988
412;0.006841899999926682
413;0.003931252999791468
414;0.0044909150001331
415;0.00379150499975367
416;0.003824058999271074
417;0.005138237999744888
418;0.005116420999911497
419;0.004628432000572502
420;0.006515598000078171
421;0.0038771009994889027
422;0.0037523769997278578
423;0.004170070999862219
424;0.0037474219998330227
425;0.003955817999667488
426;0.004496098999879905
427;0.0037965920000715414
428;0.004622849999577738
429;0.00612464700043347
430;0.005463300999508647
431;0.005971000000499771
432;0.005026288000408385
433;0.004134794000492548
434;0.0037630540000463952
435;0.004436139999597799
436;0.0039329400005954085
437;0.004231027000059839
438;0.003948087000026135
439;0.003970442000536423
440;0.004690036999818403
441;0.004039211999952386
442;0.0037872710008741706
443;0.004052659000080894
444;0.00393147799968574
445;0.004125573999772314
446;0.003948192999814637
447;0.003989902000284928
448;0.005856364000464964
449;0.0038769029997638427
450;0.0038983370004643803
451;0.004828246999750263
452;0.0051448149997668224
453;0.00517331499941065
454;0.005910114000471367
455;0.004639555999347067
456;0.004654997999750776
457;0.006181468000249879
458;0.004644222000024456
459;0.004200876000140852
460;0.007450865999999223
461;0.0052022930003658985
462;0.003943276999962109
463;0.00512998699923628
464;0.004590784999891184
465;0.004391042999486672
466;0.0045024669998383615
467;0.004490176000217616
468;0.004706007999629946
469;0.0045335120003073826
470;0.004493815000387258
471;0.005894231000638683
472;0.003899981000358821
473;0.004049471000143967
474;0.004199755999252375
475;0.004561108999951102
476;0.0057905780004148255
477;0.004621484000381315
478;0.004625869999472343
479;0.005949501000031887
480;0.004864991999966151
481;0.005111802999635984
482;0.004167133999544603
483;0.004143737000049441
484;0.004380121999929543
485;0.004610494999724324
486;0.00449073599975236
487;0.005301177000546886
488;0.004785036000612308
489;0.004496475999985705
490;0.0054014190000089
491;0.003787007999562775
492;0.005085306999717432
493;0.003725939000105427
494;0.0037585019999824
495;0.003973608000706008
496;0.005938880000030622
497;0.0037523529999816674
498;0.0054257060000963975
499;0.00453299800028617
500;0.005291086000397627
501;0.0060824720003438415
502;0.003906437999830814
503;0.0060560689998965245
504;0.003731665000486828
505;0.0038102879998405115
506;0.004511944999649131
507;0.005230087000200001
508;0.0036987559997214703
509;0.003674763000162784
510;0.004535810000561469
511;0.0048709249995226855
512;0.004201403000479331
513;0.004572744000142848
514;0.004598446999807493
515;0.0036583999999493244
516;0.0042175220005447045
517;0.0037006140000812593
518;0.004226598000059312
519;0.003792434999922989
520;0.004011791999801062
521;0.004265147000296565
522;0.004096374999789987
523;0.004433711000274343
524;0.0037061020002511214
525;0.005399945000135631
526;0.004589328999827558
527;0.004508594000071753
528;0.0054649989997415105
529;0.0059198600001764135
530;0.004202389000056428
531;0.004293644999961543
532;0.005351617000087572
533;0.004492971999752626
534;0.004591997000716219
535;0.004613848999724723
536;0.0037328749995140242
537;0.004510545999437454
538;0.004006213000138814
539;0.0047485180002695415
540;0.003938870000638417
541;0.003963555999689561
542;0.003663714999674994
543;0.004014355999970576
544;0.004077457000676077
545;0.003685747999952582
546;0.006673453000075824
547;0.004673557000387518
548;0.005919640999309195
549;0.003968230999817024
550;0.004914216000543092
551;0.003559343000233639
552;0.0036296520001997123
553;0.005236752000200795
554;0.00359899300019606
555;0.011444671999925049
556;0.005864421000296716
557;0.005841928000336338
558;0.004474909999771626
559;0.004764290000821347
560;0.004819140000108746
561;0.006029846000274119
562;0.004727394000838103
563;0.00477643399972294
564;0.00383678000071086
565;0.006546564999553084
566;0.004749620000438881
567;0.005030958000133978
568;0.004204890999972122
569;0.0035759880001933197
570;0.005158520000804856
571;0.005038366999542632
572;0.005870611999853281
573;0.004072271000040928
574;0.005848386999787181
575;0.003767754999898898
576;0.006278727000790241
577;0.006395630999577406
578;0.0038328789996739943
579;0.003974303000177315
580;0.0035262720002720016
581;0.00510537199988903
582;0.006788268000491371
583;0.006694448999951419
584;0.006322470999293728
585;0.006533504000799439
586;0.006853705000139598
587;0.006330083000648301
588;0.004044389000227966
589;0.003894325999681314
590;0.004240677999405307
591;0.005537924999771349
592;0.00630469199950312
593;0.004125591999581957
594;0.0034219769995615934
595;0.004233657999975549
596;0.003912896000656474
597;0.003550735999851895
598;0.004601724000167451
599;0.004800146999514254
600;0.00475386600010097
601;0.004577575000439538
602;0.0037090249998072977
603;0.003804533999755222
604;0.004413171999658516
605;0.004685461999542895
606;0.004807434000213107
607;0.004484324999793898
608;0.004029212000205007
609;0.0037380929998107604
610;0.0035514069995770114
611;0.0033487310001873993
612;0.005080472999907215
613;0.004576607999297266
614;0.003990359999988868
615;0.003948068999306997
616;0.0032371409997722367
617;0.004030639000120573
618;0.005386999000620563
619;0.0033615099991948227
620;0.003724938000232214
621;0.0032333010003640084
622;0.003286183999989589
623;0.003638094999587338
624;0.0032575929999438813
625;0.003948290000153065
626;0.004022021999844583
627;0.004026262000479619
628;0.004632780000065395
629;0.0036629830001402297
630;0.004724337999505224
631;0.0047318580000137445
632;0.003754299000320316
633;0.00401902900011919
634;0.004158345999712765
635;0.005948277999777929
636;0.006081513000026462
637;0.003887828999722842
638;0.0035962849997304147
639;0.004632275000403752
640;0.004225702999974601
641;0.0035423970002739225
642;0.004862912999669788
643;0.00428460900002392
644;0.005717334999644663
645;0.0035101949997624615
646;0.004215464000481006
647;0.004902427999695647
648;0.004440572999556025
649;0.00392122700031905
650;0.003510927999741398
651;0.004157155999564566
652;0.004624258000148984
653;0.004869642999437929
654;0.0035502800001268042
655;0.003706108000187669
656;0.0036794799998460803
657;0.0038217629999053315
658;0.004771193999658863
659;0.005414514999756648
660;0.005902580000110902
661;0.004784321999977692
662;0.005753389000346942
663;0.00318547899951227
664;0.0036757269999725395
665;0.005499609000253258
666;0.005613518000245676
667;0.0037435989997902652
668;0.004747582000163675
669;0.004361292999419675
670;0.003745341000467306
671;0.004423829999723239
672;0.004343282000263571
673;0.003302509000604914
674;0.003663663999759592
675;0.003528734999235894
676;0.0038013089997548377
677;0.003570360000594519
678;0.004022252000140725
679;0.004525375999946846
680;0.0035283139995954116
681;0.005249914000160061
682;0.004593523999574245
683;0.0037229800000204705
684;0.005130796000230475
685;0.0030951799999456853
686;0.0030562150004698196
687;0.00406489800025156
688;0.0035287319997223676
689;0.003912219000085315
690;0.0035359519997655298
691;0.0035976279996248195
692;0.0036958800001229974
693;0.003029315999810933
694;0.003364966999470198
695;0.00341863799985731
696;0.0046640350001325714
697;0.003019116000359645
698;0.0033761939994292334
699;0.0039643139998588595
700;0.003540910000083386
701;0.0029807860000801156
702;0.0029846329998690635
703;0.0033837190003396245
704;0.0033497240001452155
705;0.003398161000404798
706;0.003993805999925826
707;0.0040033479999692645
708;0.002911212999606505
709;0.0040864230004444835
710;0.002995206999912625
711;0.004675928999859025
712;0.004711328999292164
713;0.004427389999364095
714;0.004165655000178958
715;0.00447684200025833
716;0.004637535000256321
717;0.004259373000422784
718;0.003149348000079044
719;0.0032738760000938782
720;0.003208309999536141
721;0.003347030000441009
722;0.004524046000369708
723;0.003153058999487257
724;0.0037404009999590926
725;0.003312030000415689
726;0.004742239999359299
727;0.003941439000300306
728;0.00310814099975687
729;0.004215650000332971
730;0.003012550999301311
731;0.0026763639998534927
732;0.003707100000610808
733;0.0026202220005870913
734;0.0037925240003460203
735;0.0041187480001099175
736;0.002565220999713347
737;0.0029612670005008113
738;0.003955246000259649
739;0.0038156629998411518
740;0.002524688999983482
741;0.004084062999936577
742;0.0030613399994763313
743;0.0029547670001193183
744;0.0031536349997622892
745;0.0036077810000278987
746;0.004253100999449089
747;0.0031894160001684213
748;0.003618226000071445
749;0.002773981999780517
750;0.0024044230003710254
751;0.0031835750005484442
752;0.0023746730003040284
753;0.003045432999897457
754;0.002377095999690937
755;0.003909660000317672
756;0.003918240000530204
757;0.0027157179993082536
758;0.003984941999988223
759;0.0037088700000822428
760;0.003404459000194038
761;0.004041598999720009
762;0.004030599000543589
763;0.003490819999569794
764;0.003721715000210679
765;0.0034085489996869
766;0.0027029109996874467
767;0.002764436999314057
768;0.0027289019999443553
769;0.002726554000219039
770;0.002762729000096442
771;0.0022470469994004816
772;0.0022273619997577043
773;0.0033987790002356633
774;0.0027255600007265457
775;0.0027165840001543984
776;0.002221530000497296
777;0.002652125999702548
778;0.0022209270000530523
779;0.002614062000247941
780;0.0033736750001480686
781;0.0033465410006101592
782;0.003308150000520982
783;0.0033664919992588693
784;0.003285159000370186
785;0.003272460999141913
786;0.0025567249995219754
787;0.0021656560002156766
788;0.002557339000304637
789;0.003264807000050496
790;0.0020717379993584473
791;0.002517638000426814
792;0.002084744999592658
793;0.00257559300007415
794;0.00249896599962085
795;0.002492403999895032
796;0.0021400539999376633
797;0.002030218999607314
798;0.003211570000530628
799;0.003233139000258234
800;0.0020691529998657643
801;0.0024803120004435186
802;0.002506984999854467
803;0.0024528559997634147
804;0.0019861880000462406
805;0.0019736590002139565
806;0.002476788000421948
807;0.0031972599999789963
808;0.0024114709995046724
809;0.002428360000521934
810;0.001947302999724343
811;0.003620653999860224
812;0.0019214300000385265
813;0.001929476999976032
814;0.0019149550007568905
815;0.0030868379999446915
816;0.0023949739997988218
817;0.0023733719999654568
818;0.0019006050006282749
819;0.002367156999753206
820;0.0024200150000979193
821;0.0023553430000902154
822;0.0023614900001120986
823;0.0018636560007507796
824;0.003163348000271071
825;0.0027927260007345467
826;0.0030125080002108007
827;0.0018232579996038112
828;0.0018649759995241766
829;0.00303010900006484
830;0.0017590770003153011
831;0.0017711709997456637
832;0.0021769579998363042
833;0.0022558000000572065
834;0.0029362949999267585
835;0.0022563350003110827
836;0.0022469109999292414
837;0.0022310969998216024
838;0.0017191450006066589
839;0.00225934199988842
840;0.002209751000009419
841;0.0022299219999695197
842;0.0016898390003916575
843;0.0016691079999873182
844;0.001682862999587087
845;0.001653770999837434
846;0.0021670199994332506
847;0.002111144999616954
848;0.002897140999266412
849;0.002135366999937105
850;0.001628842000172881
851;0.0019101080006294069
852;0.002818429000399192
853;0.0016636669997751596
854;0.0016369519998988835
855;0.0016474600006404216
856;0.0016383709998990525
857;0.0016110669994304772
858;0.001620613000341109
859;0.0027876409994860296
860;0.0026990209998984938
861;0.001903526000205602
862;0.0015954919999785488
863;0.001565036000101827
864;0.002779479000309948
865;0.002580712000053609
866;0.001535610000246379
867;0.0015397690003737807
868;0.0019291079997856286
869;0.0026049699999930453
870;0.0025956380004572566
871;0.002592949000245426
872;0.0025737960004335037
873;0.0018738530006885412
874;0.0014841020001767902
875;0.0018660989999261801
876;0.002509502000066277
877;0.002470749000167416
878;0.002529090000280121
879;0.0025497819997326587
880;0.0018195410002590506
881;0.0018921979999504401
882;0.0024029010000958806
883;0.002462916000695259
884;0.0024090409997370443
885;0.0024216829997385503
886;0.0014190150004651514
887;0.0017242509993593558
888;0.002327794000848371
889;0.0023137480002333177
890;0.0022604329997193418
891;0.001674724999247701
892;0.0016504949999216478
893;0.0017979240001295693
894;0.001605879999260651
895;0.0016268890003630077
896;0.0016146640000442858
897;0.001491183000325691
898;0.0012752409993481706
899;0.0012557079999169218
900;0.0014533530002154293
901;0.001260458000615472
902;0.0014858799995636218
903;0.0016198590001295088
904;0.0012387990000206628
905;0.0015497449994654744
906;0.0012348250002105488
907;0.0012214029993629083
908;0.001492184000198904
909;0.0020406710000315798
910;0.002072426999802701
911;0.00204518000009557
912;0.002104342999700748
913;0.0019419589998506126
914;0.0019774780002990155
915;0.0019468300006337813
916;0.0018269860001964844
917;0.0019469199996819953
918;0.0018776530005197856
919;0.0021594350000668783
920;0.0018792580003719195
921;0.001874931999736873
922;0.0018901620005635777
923;0.0013018500003454392
924;0.0011217930004931986
925;0.0018291970000063884
926;0.0011941740003749146
927;0.001313800999923842
928;0.001034455000080925
929;0.0016843690000314382
930;0.0017929519999597687
931;0.0017237219999515219
932;0.0009933460005413508
933;0.0016519330001756316
934;0.0016490190000695293
935;0.001504908999777399
936;0.0010389640001449152
937;0.0010965350002152263
938;0.0011445310001363396
939;0.001246002000698354
940;0.0016690259999450063
941;0.0009272289998989436
942;0.0017224789999090717
943;0.000920444000257703
944;0.0014745650005352218
945;0.0015427149992319755
946;0.0008918150006138603
947;0.0014772849999644677
948;0.0009048920001077931
949;0.0008231889996750397
950;0.0010171249996346887
951;0.0015571829999316833
952;0.0014412050004466437
953;0.001353554000161239
954;0.001399982999828353
955;0.0012954889998582075
956;0.0007585690000269096
957;0.001656745000218507
958;0.0015031890006866888
959;0.0012346170005912427
960;0.001288047000343795
961;0.0007651550004084129
962;0.0006910119991516694
963;0.0013170829997761757
964;0.0011672620003082557
965;0.0007267749997481587
966;0.001102227000046696
967;0.0011708750007528579
968;0.0006361170007949113
969;0.0010036960002253181
970;0.001214943999912066
971;0.0007783430000927183
972;0.0006009320004523033
973;0.0020871669994448894
974;0.001034642999911739
975;0.0009431869993932196
976;0.0009620439996069763
977;0.0012609489995156764
978;0.001083818000552128
979;0.0010315680001440342
980;0.0008864450001055957
981;0.000497555000038119
982;0.0005597259996648063
983;0.0008176470000762492
984;0.0007688599998800782
985;0.0007576540001537069
986;0.0007669609994991333
987;0.0007796979998602183
988;0.0007083069995132973
989;0.0007314599997698679
990;0.0004052719996252563
991;0.000385463000384334
992;0.0003943519996028044
993;0.0005110830006742617
994;0.00038775300072302343
995;0.0003448470006333082
996;0.0005979979996482143
997;0.00032490099965798436
998;0.0003154010000798735
999;0.0005396770002334961
1000;0.0002991479996126145
